%YAML 1.1
%TAG !u! tag:unity3d.com,2011:
--- !u!114 &11400000
MonoBehaviour:
  m_ObjectHideFlags: 0
  m_PrefabParentObject: {fileID: 0}
  m_PrefabInternal: {fileID: 0}
  m_GameObject: {fileID: 0}
  m_Enabled: 1
  m_EditorHideFlags: 0
  m_Script: {fileID: 11500000, guid: 889627e057df5654daa122c0e23921c5, type: 3}
  m_Name: ChapterIIIBonus
  m_EditorClassIdentifier: 
  mapName: Fluffy Bird
  mapImage: {fileID: 21300000, guid: 2b44835b76092154497027243325c8e4, type: 3}
  mapImageLocked: {fileID: 21300000, guid: 1e010c24b922a7e41ade9aef0be1f584, type: 3}
  difficulty: 2
  isBonusMap: 1
  previousMap: {fileID: 11400000, guid: 94b50de6779858844896cbb65e8e87ff, type: 2}
  nextMap: {fileID: 0}
  bowsNeeded: 40
  isUnlocked: 0
  isCompleted: 0
  bowsFound: 0
  bowsMax: 5
