%YAML 1.1
%TAG !u! tag:unity3d.com,2011:
--- !u!1001 &100100000
Prefab:
  m_ObjectHideFlags: 1
  serializedVersion: 2
  m_Modification:
    m_TransformParent: {fileID: 0}
    m_Modifications: []
    m_RemovedComponents: []
  m_ParentPrefab: {fileID: 0}
  m_RootGameObject: {fileID: 1263378034495676}
  m_IsPrefabParent: 1
--- !u!1 &1263378034495676
GameObject:
  m_ObjectHideFlags: 0
  m_PrefabParentObject: {fileID: 0}
  m_PrefabInternal: {fileID: 100100000}
  serializedVersion: 5
  m_Component:
  - component: {fileID: 4914095494293718}
  - component: {fileID: 212174834927405238}
  - component: {fileID: 60057505558610660}
  - component: {fileID: 114221362387026014}
  m_Layer: 0
  m_Name: CaveBackground32
  m_TagString: Untagged
  m_Icon: {fileID: 0}
  m_NavMeshLayer: 0
  m_StaticEditorFlags: 0
  m_IsActive: 1
--- !u!4 &4914095494293718
Transform:
  m_ObjectHideFlags: 1
  m_PrefabParentObject: {fileID: 0}
  m_PrefabInternal: {fileID: 100100000}
  m_GameObject: {fileID: 1263378034495676}
  m_LocalRotation: {x: -0, y: -0, z: -0, w: 1}
  m_LocalPosition: {x: 0, y: 0, z: 0}
  m_LocalScale: {x: 1, y: 1, z: 1}
  m_Children: []
  m_Father: {fileID: 0}
  m_RootOrder: 0
  m_LocalEulerAnglesHint: {x: 0, y: 0, z: 0}
--- !u!60 &60057505558610660
PolygonCollider2D:
  m_ObjectHideFlags: 1
  m_PrefabParentObject: {fileID: 0}
  m_PrefabInternal: {fileID: 100100000}
  m_GameObject: {fileID: 1263378034495676}
  m_Enabled: 1
  m_Density: 1
  m_Material: {fileID: 6200000, guid: 56e7eecb06e7e1f40b1a686671dc3310, type: 2}
  m_IsTrigger: 0
  m_UsedByEffector: 0
  m_UsedByComposite: 0
  m_Offset: {x: 0, y: 0}
  m_SpriteTilingProperty:
    border: {x: 0, y: 0, z: 0, w: 0}
    pivot: {x: 0.5, y: 0.5}
    oldSize: {x: 80, y: 45}
    newSize: {x: 80, y: 45}
    adaptiveTilingThreshold: 0.5
    drawMode: 0
    adaptiveTiling: 0
  m_AutoTiling: 0
  m_Points:
    m_Paths:
    - - {x: 39.257812, y: -16.914062}
      - {x: 34.921875, y: -13.8671875}
      - {x: 27.617188, y: -17.5}
      - {x: 1.171875, y: -16.328125}
      - {x: -1.09375, y: -14.1796875}
      - {x: -12.03125, y: -16.328125}
      - {x: -17.226562, y: -12.7734375}
      - {x: -22.890625, y: -14.9609375}
      - {x: -34.921875, y: -11.875}
      - {x: -40, y: -17.5}
      - {x: -40, y: -22.5}
      - {x: 40, y: -22.5}
      - {x: 39.960938, y: -17.421875}
    - - {x: 38.710938, y: 18.4375}
      - {x: 40, y: 19.375}
      - {x: 40, y: 22.5}
      - {x: 29.648438, y: 22.5}
      - {x: 30.507812, y: 19.257812}
      - {x: 34.140625, y: 15.3125}
      - {x: 37.8125, y: 17.8125}
    - - {x: -40, y: 22.5}
      - {x: -40, y: 19.296875}
      - {x: -35.703125, y: 17.304688}
      - {x: -30.898438, y: 22.5}
--- !u!114 &114221362387026014
MonoBehaviour:
  m_ObjectHideFlags: 1
  m_PrefabParentObject: {fileID: 0}
  m_PrefabInternal: {fileID: 100100000}
  m_GameObject: {fileID: 1263378034495676}
  m_Enabled: 1
  m_EditorHideFlags: 0
  m_Script: {fileID: 11500000, guid: 6876803ba35184bf9b6a393e33a2f264, type: 3}
  m_Name: 
  m_EditorClassIdentifier: 
  tolerance: 0.5
--- !u!212 &212174834927405238
SpriteRenderer:
  m_ObjectHideFlags: 1
  m_PrefabParentObject: {fileID: 0}
  m_PrefabInternal: {fileID: 100100000}
  m_GameObject: {fileID: 1263378034495676}
  m_Enabled: 1
  m_CastShadows: 0
  m_ReceiveShadows: 0
  m_DynamicOccludee: 1
  m_MotionVectors: 1
  m_LightProbeUsage: 1
  m_ReflectionProbeUsage: 1
  m_RenderingLayerMask: 4294967295
  m_Materials:
  - {fileID: 10754, guid: 0000000000000000f000000000000000, type: 0}
  m_StaticBatchInfo:
    firstSubMesh: 0
    subMeshCount: 0
  m_StaticBatchRoot: {fileID: 0}
  m_ProbeAnchor: {fileID: 0}
  m_LightProbeVolumeOverride: {fileID: 0}
  m_ScaleInLightmap: 1
  m_PreserveUVs: 0
  m_IgnoreNormalsForChartDetection: 0
  m_ImportantGI: 0
  m_StitchLightmapSeams: 0
  m_SelectedEditorRenderState: 0
  m_MinimumChartSize: 4
  m_AutoUVMaxDistance: 0.5
  m_AutoUVMaxAngle: 89
  m_LightmapParameters: {fileID: 0}
  m_SortingLayerID: 1383618475
  m_SortingLayer: 3
  m_SortingOrder: 0
  m_Sprite: {fileID: 21300000, guid: 2facba37d53e77c4f96e8698c5be8350, type: 3}
  m_Color: {r: 1, g: 1, b: 1, a: 1}
  m_FlipX: 0
  m_FlipY: 0
  m_DrawMode: 0
  m_Size: {x: 80, y: 45}
  m_AdaptiveModeThreshold: 0.5
  m_SpriteTileMode: 0
  m_WasSpriteAssigned: 1
  m_MaskInteraction: 0
