%YAML 1.1
%TAG !u! tag:unity3d.com,2011:
--- !u!114 &11400000
MonoBehaviour:
  m_ObjectHideFlags: 0
  m_PrefabParentObject: {fileID: 0}
  m_PrefabInternal: {fileID: 0}
  m_GameObject: {fileID: 0}
  m_Enabled: 1
  m_EditorHideFlags: 0
  m_Script: {fileID: 11500000, guid: ee87446424f0e12439f9d97e8a3f8cff, type: 3}
  m_Name: Chapter I
  m_EditorClassIdentifier: 
  chapterName: Jungle
  startMap: {fileID: 11400000, guid: 4cf1b261ab0415f4d89a406e9e148b32, type: 2}
  maps:
  - {fileID: 11400000, guid: 4cf1b261ab0415f4d89a406e9e148b32, type: 2}
  - {fileID: 11400000, guid: 2bb8dee1708787142a531b0095d712ef, type: 2}
  - {fileID: 11400000, guid: 25fa643322eb9d249a158aa9cc864d92, type: 2}
  - {fileID: 11400000, guid: 1c150812c63a40b45a45c85fafeb8fb9, type: 2}
  - {fileID: 11400000, guid: 275e95912b4fc44459cd01f4168c6016, type: 2}
  bonusMaps:
  - {fileID: 11400000, guid: 84be8225f4b42f04586783f78d2f5832, type: 2}
  previousChapter: {fileID: 0}
  nextChapter: {fileID: 11400000, guid: d382e8a3f1531e94ab22e47e8b0c943d, type: 2}
  chapterImage: {fileID: 21300000, guid: 2abf10377a89153488949d74784df647, type: 3}
