%YAML 1.1
%TAG !u! tag:unity3d.com,2011:
--- !u!1045 &1
EditorBuildSettings:
  m_ObjectHideFlags: 0
  serializedVersion: 2
  m_Scenes:
  - enabled: 1
    path: Assets/Scenes/MainMenu.unity
    guid: 2bd9d6342130ccf449b076050876dbd9
  - enabled: 1
    path: Assets/Scenes/Tutorial.unity
    guid: d44243a604f15bf47889e211d458afb4
  - enabled: 1
    path: Assets/Scenes/ChapterISceneI.unity
    guid: ecc2e1153cf996845b09b87d4a2123e9
  - enabled: 1
    path: Assets/Scenes/ChapterISceneII.unity
    guid: b6084462530e7d5479394aeea4062b06
  - enabled: 1
    path: Assets/Scenes/ChapterISceneIII.unity
    guid: 4ba1a968aebda994cb32946c71e80805
  - enabled: 1
    path: Assets/Scenes/ChapterISceneIV.unity
    guid: bada86d2ab0cff14a944bcdab872b722
  - enabled: 1
    path: Assets/Scenes/ChapterIBonus.unity
    guid: 5b92b3e553fff7649bfb4a81bcd248b8
  - enabled: 1
    path: Assets/Scenes/ChapterIISceneI.unity
    guid: 03b58cd28a9f5af40a75aa0866f8b7ad
  - enabled: 1
    path: Assets/Scenes/ChapterIISceneII.unity
    guid: 13c9dd06b3d0c1b429191b952a3f3133
  - enabled: 1
    path: Assets/Scenes/ChapterIISceneIII.unity
    guid: cc3831ebf5106d44ab29e78c79e49961
  - enabled: 1
    path: Assets/Scenes/ChapterIISceneIV.unity
    guid: a4a027923d0deb944a77c4a1bd31bce8
  - enabled: 1
    path: Assets/Scenes/ChapterIIBonus.unity
    guid: c1a36ea8223e33844aaea07dd6c647ab
  - enabled: 1
    path: Assets/Scenes/ChapterIIISceneI.unity
    guid: 0c21322b8eea8a04da4db0f403f2a1cf
  - enabled: 1
    path: Assets/Scenes/ChapterIIISceneII.unity
    guid: a1e852df08ed8de49898e6bd1d3b3a64
  - enabled: 1
    path: Assets/Scenes/ChapterIIISceneIII.unity
    guid: d3e03db00cb7af849917e22567a45140
  - enabled: 1
    path: Assets/Scenes/ChapterIIISceneIV.unity
    guid: 1b439de7aece73443b98962adefd4ab4
  - enabled: 1
    path: Assets/Scenes/ChapterIIIBonus.unity
    guid: 574a968b6c3bf2545873bd9279905c1e
  - enabled: 0
    path: 
    guid: 00000000000000000000000000000000
  - enabled: 0
    path: 
    guid: 00000000000000000000000000000000
  - enabled: 0
    path: 
    guid: 00000000000000000000000000000000
  - enabled: 0
    path: Assets/Scenes/SampleScene.unity
    guid: 2cda990e2423bbf4892e6590ba056729
  m_configObjects: {}
