%YAML 1.1
%TAG !u! tag:unity3d.com,2011:
--- !u!78 &1
TagManager:
  serializedVersion: 2
  tags:
  - Trap
  - SpikeBall
  layers:
  - Default
  - TransparentFX
  - Ignore Raycast
  - 
  - Water
  - UI
  - 
  - 
  - Signs
  - Rocks
  - MapParts
  - 
  - 
  - 
  - 
  - 
  - 
  - 
  - 
  - 
  - 
  - 
  - 
  - 
  - 
  - 
  - 
  - 
  - 
  - 
  - 
  - 
  m_SortingLayers:
  - name: Default
    uniqueID: 0
    locked: 0
  - name: Background
    uniqueID: 1692772017
    locked: 0
  - name: Objects
    uniqueID: 1725864539
    locked: 0
  - name: Map
    uniqueID: 1383618475
    locked: 0
  - name: Balls
    uniqueID: 3988771807
    locked: 0
  - name: Collectibles
    uniqueID: 1526960051
    locked: 0
  - name: Player
    uniqueID: 2939170397
    locked: 0
  - name: Particles
    uniqueID: 2243790619
    locked: 0
  - name: Hidden
    uniqueID: 1642594921
    locked: 0
